Phase-II/simulation.vcd
$date
	Tue Apr 15 14:07:22 2025
$end
$version
	Icarus Verilog
$end
$timescale
	1s
$end
$scope module testbench $end
$var wire 1 ! puf_bit_out $end
$var reg 1 " clk $end
$var reg 1 # rst $end
$scope module dut $end
$var wire 1 " clk $end
$var wire 1 ! puf_bit_out $end
$var wire 1 # rst $end
$var wire 1 $ start_count $end
$var wire 1 % puf_bit $end
$var wire 1 & osc_out_B $end
$var wire 1 ' osc_out_A $end
$var wire 1 ( enable_ro $end
$var wire 32 ) count_B [31:0] $end
$var wire 32 * count_A [31:0] $end
$scope module comp $end
$var wire 1 % puf_bit $end
$var wire 32 + count_B [31:0] $end
$var wire 32 , count_A [31:0] $end
$upscope $end
$scope module counter_A $end
$var wire 1 " clk $end
$var wire 1 # rst $end
$var wire 1 ' osc_in $end
$var reg 32 - count [31:0] $end
$var reg 1 . osc_in_d $end
$upscope $end
$scope module counter_B $end
$var wire 1 " clk $end
$var wire 1 # rst $end
$var wire 1 & osc_in $end
$var reg 32 / count [31:0] $end
$var reg 1 0 osc_in_d $end
$upscope $end
$scope module fsm $end
$var wire 1 " clk $end
$var wire 1 # rst $end
$var parameter 2 1 DONE $end
$var parameter 2 2 IDLE $end
$var parameter 2 3 MEASURE $end
$var parameter 2 4 WAIT $end
$var reg 1 5 done $end
$var reg 1 ( enable_ro $end
$var reg 2 6 next_state [1:0] $end
$var reg 1 $ start_count $end
$var reg 2 7 state [1:0] $end
$var reg 16 8 wait_counter [15:0] $end
$upscope $end
$scope module ro_A $end
$var reg 1 ' osc_out $end
$upscope $end
$scope module ro_B $end
$var reg 1 & osc_out $end
$upscope $end
$upscope $end
$upscope $end
$enddefinitions $end
$comment Show the parameter values. $end
$dumpall
b10 4
b1 3
b0 2
b11 1
$end
#0
$dumpvars
b0 8
b0 7
b1 6
05
00
b0 /
0.
b0 -
b0 ,
b0 +
b0 *
b0 )
0(
0'
0&
0%
0$
1#
0"
0!
$end
#2
1'
#4
0'
#5
1"
#6
1'
#8
0'
1&
#10
1'
0"
#12
0'
#14
1'
#15
1"
#16
0'
0&
#18
1'
#20
0'
0"
0#
#22
1'
#24
0'
1&
#25
b10 6
1$
1(
b1 7
b1 )
b1 +
b1 /
10
1"
#26
1'
#28
0'
#30
1'
0"
#32
0'
0&
#34
1'
#35
1$
1(
b1 *
b1 ,
b1 -
1.
00
b10 7
1"
#36
0'
#38
1'
#40
0'
0"
1&
#42
1'
#44
0'
#45
1$
1(
b1 8
b10 )
b10 +
b10 /
10
0.
1"
#46
1'
#48
0'
0&
#50
1'
0"
#52
0'
#54
1'
#55
1$
1(
b10 *
b10 ,
b10 -
1.
00
b10 8
1"
#56
0'
1&
#58
1'
#60
0'
0"
#62
1'
#64
0'
0&
#65
1$
1(
b11 8
0.
1"
#66
1'
#68
0'
#70
1'
0"
#72
0'
1&
#74
1'
#75
1$
1(
b11 *
b11 ,
b11 -
1.
b11 )
b11 +
b11 /
10
b100 8
1"
#76
0'
#78
1'
#80
0'
0"
0&
#82
1'
#84
0'
#85
1$
1(
b101 8
00
0.
1"
#86
1'
#88
0'
1&
#90
1'
0"
#92
0'
#94
1'
#95
1$
1(
b100 *
b100 ,
b100 -
1.
b100 )
b100 +
b100 /
10
b110 8
1"
#96
0'
0&
#98
1'
#100
0'
0"
#102
1'
#104
0'
1&
#105
1$
1(
b111 8
0.
1"
#106
1'
#108
0'
#110
1'
0"
#112
0'
0&
#114
1'
#115
1!
1%
1$
1(
b101 *
b101 ,
b101 -
1.
00
b1000 8
1"
#116
0'
#118
1'
#120
0'
0"
1&
#122
1'
#124
0'
#125
1$
1(
0!
0%
b1001 8
b101 )
b101 +
b101 /
10
0.
1"
#126
1'
#128
0'
0&
#130
1'
0"
#132
0'
#134
1'
#135
1!
1%
1$
1(
b110 *
b110 ,
b110 -
1.
00
b1010 8
1"
#136
0'
1&
#138
1'
#140
0'
0"
#142
1'
#144
0'
0&
#145
1$
1(
b1011 8
0.
1"
#146
1'
#148
0'
#150
1'
0"
#152
0'
1&
#154
1'
#155
1$
1(
b111 *
b111 ,
b111 -
1.
b110 )
b110 +
b110 /
10
b1100 8
1"
#156
0'
#158
1'
#160
0'
0"
0&
#162
1'
#164
0'
#165
1$
1(
b1101 8
00
0.
1"
#166
1'
#168
0'
1&
#170
1'
0"
#172
0'
#174
1'
#175
1$
1(
b1000 *
b1000 ,
b1000 -
1.
b111 )
b111 +
b111 /
10
b1110 8
1"
#176
0'
0&
#178
1'
#180
0'
0"
#182
1'
#184
0'
1&
#185
1$
1(
b1111 8
0.
1"
#186
1'
#188
0'
#190
1'
0"
#192
0'
0&
#194
1'
#195
1$
1(
b1001 *
b1001 ,
b1001 -
1.
00
b10000 8
1"
#196
0'
#198
1'
#200
0'
0"
1&
#202
1'
#204
0'
#205
1$
1(
b10001 8
b1000 )
b1000 +
b1000 /
10
0.
1"
#206
1'
#208
0'
0&
#210
1'
0"
#212
0'
#214
1'
#215
1$
1(
b1010 *
b1010 ,
b1010 -
1.
00
b10010 8
1"
#216
0'
1&
#218
1'
#220
0'
0"
#222
1'
#224
0'
0&
#225
1$
1(
b10011 8
0.
1"
#226
1'
#228
0'
#230
1'
0"
#232
0'
1&
#234
1'
#235
1$
1(
b1011 *
b1011 ,
b1011 -
1.
b1001 )
b1001 +
b1001 /
10
b10100 8
1"
#236
0'
#238
1'
#240
0'
0"
0&
#242
1'
#244
0'
#245
1$
1(
b10101 8
00
0.
1"
#246
1'
#248
0'
1&
#250
1'
0"
#252
0'
#254
1'
#255
1$
1(
b1100 *
b1100 ,
b1100 -
1.
b1010 )
b1010 +
b1010 /
10
b10110 8
1"
#256
0'
0&
#258
1'
#260
0'
0"
#262
1'
#264
0'
1&
#265
1$
1(
b10111 8
0.
1"
#266
1'
#268
0'
#270
1'
0"
#272
0'
0&
#274
1'
#275
1$
1(
b1101 *
b1101 ,
b1101 -
1.
00
b11000 8
1"
#276
0'
#278
1'
#280
0'
0"
1&
#282
1'
#284
0'
#285
1$
1(
b11001 8
b1011 )
b1011 +
b1011 /
10
0.
1"
#286
1'
#288
0'
0&
#290
1'
0"
#292
0'
#294
1'
#295
1$
1(
b1110 *
b1110 ,
b1110 -
1.
00
b11010 8
1"
#296
0'
1&
#298
1'
#300
0'
0"
#302
1'
#304
0'
0&
#305
1$
1(
b11011 8
0.
1"
#306
1'
#308
0'
#310
1'
0"
#312
0'
1&
#314
1'
#315
1$
1(
b1111 *
b1111 ,
b1111 -
1.
b1100 )
b1100 +
b1100 /
10
b11100 8
1"
#316
0'
#318
1'
#320
0'
0"
0&
#322
1'
#324
0'
#325
1$
1(
b11101 8
00
0.
1"
#326
1'
#328
0'
1&
#330
1'
0"
#332
0'
#334
1'
#335
1$
1(
b10000 *
b10000 ,
b10000 -
1.
b1101 )
b1101 +
b1101 /
10
b11110 8
1"
#336
0'
0&
#338
1'
#340
0'
0"
#342
1'
#344
0'
1&
#345
1$
1(
b11111 8
0.
1"
#346
1'
#348
0'
#350
1'
0"
#352
0'
0&
#354
1'
#355
1$
1(
b10001 *
b10001 ,
b10001 -
1.
00
b100000 8
1"
#356
0'
#358
1'
#360
0'
0"
1&
#362
1'
#364
0'
#365
1$
1(
b100001 8
b1110 )
b1110 +
b1110 /
10
0.
1"
#366
1'
#368
0'
0&
#370
1'
0"
#372
0'
#374
1'
#375
1$
1(
b10010 *
b10010 ,
b10010 -
1.
00
b100010 8
1"
#376
0'
1&
#378
1'
#380
0'
0"
#382
1'
#384
0'
0&
#385
1$
1(
b100011 8
0.
1"
#386
1'
#388
0'
#390
1'
0"
#392
0'
1&
#394
1'
#395
1$
1(
b10011 *
b10011 ,
b10011 -
1.
b1111 )
b1111 +
b1111 /
10
b100100 8
1"
#396
0'
#398
1'
#400
0'
0"
0&
#402
1'
#404
0'
#405
1$
1(
b100101 8
00
0.
1"
#406
1'
#408
0'
1&
#410
1'
0"
#412
0'
#414
1'
#415
1$
1(
b10100 *
b10100 ,
b10100 -
1.
b10000 )
b10000 +
b10000 /
10
b100110 8
1"
#416
0'
0&
#418
1'
#420
0'
0"
#422
1'
#424
0'
1&
#425
1$
1(
b100111 8
0.
1"
#426
1'
#428
0'
#430
1'
0"
#432
0'
0&
#434
1'
#435
1$
1(
b10101 *
b10101 ,
b10101 -
1.
00
b101000 8
1"
#436
0'
#438
1'
#440
0'
0"
1&
#442
1'
#444
0'
#445
1$
1(
b101001 8
b10001 )
b10001 +
b10001 /
10
0.
1"
#446
1'
#448
0'
0&
#450
1'
0"
#452
0'
#454
1'
#455
1$
1(
b10110 *
b10110 ,
b10110 -
1.
00
b101010 8
1"
#456
0'
1&
#458
1'
#460
0'
0"
#462
1'
#464
0'
0&
#465
1$
1(
b101011 8
0.
1"
#466
1'
#468
0'
#470
1'
0"
#472
0'
1&
#474
1'
#475
1$
1(
b10111 *
b10111 ,
b10111 -
1.
b10010 )
b10010 +
b10010 /
10
b101100 8
1"
#476
0'
#478
1'
#480
0'
0"
0&
#482
1'
#484
0'
#485
1$
1(
b101101 8
00
0.
1"
#486
1'
#488
0'
1&
#490
1'
0"
#492
0'
#494
1'
#495
1$
1(
b11000 *
b11000 ,
b11000 -
1.
b10011 )
b10011 +
b10011 /
10
b101110 8
1"
#496
0'
0&
#498
1'
#500
0'
0"
#502
1'
#504
0'
1&
#505
1$
1(
b101111 8
0.
1"
#506
1'
#508
0'
#510
1'
0"
#512
0'
0&
#514
1'
#515
1$
1(
b11001 *
b11001 ,
b11001 -
1.
00
b110000 8
1"
#516
0'
#518
1'
#520
0'
0"
1&
#522
1'
#524
0'
#525
1$
1(
b110001 8
b10100 )
b10100 +
b10100 /
10
0.
1"
#526
1'
#528
0'
0&
#530
1'
0"
#532
0'
#534
1'
#535
1$
1(
b11010 *
b11010 ,
b11010 -
1.
00
b110010 8
1"
#536
0'
1&
#538
1'
#540
0'
0"
#542
1'
#544
0'
0&
#545
1$
1(
b110011 8
0.
1"
#546
1'
#548
0'
#550
1'
0"
#552
0'
1&
#554
1'
#555
1$
1(
b11011 *
b11011 ,
b11011 -
1.
b10101 )
b10101 +
b10101 /
10
b110100 8
1"
#556
0'
#558
1'
#560
0'
0"
0&
#562
1'
#564
0'
#565
1$
1(
b110101 8
00
0.
1"
#566
1'
#568
0'
1&
#570
1'
0"
#572
0'
#574
1'
#575
1$
1(
b11100 *
b11100 ,
b11100 -
1.
b10110 )
b10110 +
b10110 /
10
b110110 8
1"
#576
0'
0&
#578
1'
#580
0'
0"
#582
1'
#584
0'
1&
#585
1$
1(
b110111 8
0.
1"
#586
1'
#588
0'
#590
1'
0"
#592
0'
0&
#594
1'
#595
1$
1(
b11101 *
b11101 ,
b11101 -
1.
00
b111000 8
1"
#596
0'
#598
1'
#600
0'
0"
1&
#602
1'
#604
0'
#605
1$
1(
b111001 8
b10111 )
b10111 +
b10111 /
10
0.
1"
#606
1'
#608
0'
0&
#610
1'
0"
#612
0'
#614
1'
#615
1$
1(
b11110 *
b11110 ,
b11110 -
1.
00
b111010 8
1"
#616
0'
1&
#618
1'
#620
0'
0"
#622
1'
#624
0'
0&
#625
1$
1(
b111011 8
0.
1"
#626
1'
#628
0'
#630
1'
0"
#632
0'
1&
#634
1'
#635
1$
1(
b11111 *
b11111 ,
b11111 -
1.
b11000 )
b11000 +
b11000 /
10
b111100 8
1"
#636
0'
#638
1'
#640
0'
0"
0&
#642
1'
#644
0'
#645
1$
1(
b111101 8
00
0.
1"
#646
1'
#648
0'
1&
#650
1'
0"
#652
0'
#654
1'
#655
1$
1(
b100000 *
b100000 ,
b100000 -
1.
b11001 )
b11001 +
b11001 /
10
b111110 8
1"
#656
0'
0&
#658
1'
#660
0'
0"
#662
1'
#664
0'
1&
#665
1$
1(
b111111 8
0.
1"
#666
1'
#668
0'
#670
1'
0"
#672
0'
0&
#674
1'
#675
1$
1(
b100001 *
b100001 ,
b100001 -
1.
00
b1000000 8
1"
#676
0'
#678
1'
#680
0'
0"
1&
#682
1'
#684
0'
#685
1$
1(
b1000001 8
b11010 )
b11010 +
b11010 /
10
0.
1"
#686
1'
#688
0'
0&
#690
1'
0"
#692
0'
#694
1'
#695
1$
1(
b100010 *
b100010 ,
b100010 -
1.
00
b1000010 8
1"
#696
0'
1&
#698
1'
#700
0'
0"
#702
1'
#704
0'
0&
#705
1$
1(
b1000011 8
0.
1"
#706
1'
#708
0'
#710
1'
0"
#712
0'
1&
#714
1'
#715
1$
1(
b100011 *
b100011 ,
b100011 -
1.
b11011 )
b11011 +
b11011 /
10
b1000100 8
1"
#716
0'
#718
1'
#720
0'
0"
0&
#722
1'
#724
0'
#725
1$
1(
b1000101 8
00
0.
1"
#726
1'
#728
0'
1&
#730
1'
0"
#732
0'
#734
1'
#735
1$
1(
b100100 *
b100100 ,
b100100 -
1.
b11100 )
b11100 +
b11100 /
10
b1000110 8
1"
#736
0'
0&
#738
1'
#740
0'
0"
#742
1'
#744
0'
1&
#745
1$
1(
b1000111 8
0.
1"
#746
1'
#748
0'
#750
1'
0"
#752
0'
0&
#754
1'
#755
1$
1(
b100101 *
b100101 ,
b100101 -
1.
00
b1001000 8
1"
#756
0'
#758
1'
#760
0'
0"
1&
#762
1'
#764
0'
#765
1$
1(
b1001001 8
b11101 )
b11101 +
b11101 /
10
0.
1"
#766
1'
#768
0'
0&
#770
1'
0"
#772
0'
#774
1'
#775
1$
1(
b100110 *
b100110 ,
b100110 -
1.
00
b1001010 8
1"
#776
0'
1&
#778
1'
#780
0'
0"
#782
1'
#784
0'
0&
#785
1$
1(
b1001011 8
0.
1"
#786
1'
#788
0'
#790
1'
0"
#792
0'
1&
#794
1'
#795
1$
1(
b100111 *
b100111 ,
b100111 -
1.
b11110 )
b11110 +
b11110 /
10
b1001100 8
1"
#796
0'
#798
1'
#800
0'
0"
0&
#802
1'
#804
0'
#805
1$
1(
b1001101 8
00
0.
1"
#806
1'
#808
0'
1&
#810
1'
0"
#812
0'
#814
1'
#815
1$
1(
b101000 *
b101000 ,
b101000 -
1.
b11111 )
b11111 +
b11111 /
10
b1001110 8
1"
#816
0'
0&
#818
1'
#820
0'
0"
#822
1'
#824
0'
1&
#825
1$
1(
b1001111 8
0.
1"
#826
1'
#828
0'
#830
1'
0"
#832
0'
0&
#834
1'
#835
1$
1(
b101001 *
b101001 ,
b101001 -
1.
00
b1010000 8
1"
#836
0'
#838
1'
#840
0'
0"
1&
#842
1'
#844
0'
#845
1$
1(
b1010001 8
b100000 )
b100000 +
b100000 /
10
0.
1"
#846
1'
#848
0'
0&
#850
1'
0"
#852
0'
#854
1'
#855
1$
1(
b101010 *
b101010 ,
b101010 -
1.
00
b1010010 8
1"
#856
0'
1&
#858
1'
#860
0'
0"
#862
1'
#864
0'
0&
#865
1$
1(
b1010011 8
0.
1"
#866
1'
#868
0'
#870
1'
0"
#872
0'
1&
#874
1'
#875
1$
1(
b101011 *
b101011 ,
b101011 -
1.
b100001 )
b100001 +
b100001 /
10
b1010100 8
1"
#876
0'
#878
1'
#880
0'
0"
0&
#882
1'
#884
0'
#885
1$
1(
b1010101 8
00
0.
1"
#886
1'
#888
0'
1&
#890
1'
0"
#892
0'
#894
1'
#895
1$
1(
b101100 *
b101100 ,
b101100 -
1.
b100010 )
b100010 +
b100010 /
10
b1010110 8
1"
#896
0'
0&
#898
1'
#900
0'
0"
#902
1'
#904
0'
1&
#905
1$
1(
b1010111 8
0.
1"
#906
1'
#908
0'
#910
1'
0"
#912
0'
0&
#914
1'
#915
1$
1(
b101101 *
b101101 ,
b101101 -
1.
00
b1011000 8
1"
#916
0'
#918
1'
#920
0'
0"
1&
#922
1'
#924
0'
#925
1$
1(
b1011001 8
b100011 )
b100011 +
b100011 /
10
0.
1"
#926
1'
#928
0'
0&
#930
1'
0"
#932
0'
#934
1'
#935
1$
1(
b101110 *
b101110 ,
b101110 -
1.
00
b1011010 8
1"
#936
0'
1&
#938
1'
#940
0'
0"
#942
1'
#944
0'
0&
#945
1$
1(
b1011011 8
0.
1"
#946
1'
#948
0'
#950
1'
0"
#952
0'
1&
#954
1'
#955
1$
1(
b101111 *
b101111 ,
b101111 -
1.
b100100 )
b100100 +
b100100 /
10
b1011100 8
1"
#956
0'
#958
1'
#960
0'
0"
0&
#962
1'
#964
0'
#965
1$
1(
b1011101 8
00
0.
1"
#966
1'
#968
0'
1&
#970
1'
0"
#972
0'
#974
1'
#975
1$
1(
b110000 *
b110000 ,
b110000 -
1.
b100101 )
b100101 +
b100101 /
10
b1011110 8
1"
#976
0'
0&
#978
1'
#980
0'
0"
#982
1'
#984
0'
1&
#985
1$
1(
b1011111 8
0.
1"
#986
1'
#988
0'
#990
1'
0"
#992
0'
0&
#994
1'
#995
1$
1(
b110001 *
b110001 ,
b110001 -
1.
00
b1100000 8
1"
#996
0'
#998
1'
#1000
0'
0"
1&
#1002
1'
#1004
0'
#1005
1$
1(
b1100001 8
b100110 )
b100110 +
b100110 /
10
0.
1"
#1006
1'
#1008
0'
0&
#1010
1'
0"
#1012
0'
#1014
1'
#1015
1$
1(
b110010 *
b110010 ,
b110010 -
1.
00
b1100010 8
1"
#1016
0'
1&
#1018
1'
#1020
0'
0"
#1022
1'
#1024
0'
0&
#1025
1$
1(
b1100011 8
0.
1"
#1026
1'
#1028
0'
#1030
1'
0"
#1032
0'
1&
#1034
1'
#1035
1$
1(
b110011 *
b110011 ,
b110011 -
1.
b100111 )
b100111 +
b100111 /
10
b1100100 8
1"
#1036
0'
#1038
1'
#1040
0'
0"
0&
#1042
1'
#1044
0'
#1045
1$
1(
b1100101 8
00
0.
1"
#1046
1'
#1048
0'
1&
#1050
1'
0"
#1052
0'
#1054
1'
#1055
1$
1(
b110100 *
b110100 ,
b110100 -
1.
b101000 )
b101000 +
b101000 /
10
b1100110 8
1"
#1056
0'
0&
#1058
1'
#1060
0'
0"
#1062
1'
#1064
0'
1&
#1065
1$
1(
b1100111 8
0.
1"
#1066
1'
#1068
0'
#1070
1'
0"
#1072
0'
0&
#1074
1'
#1075
1$
1(
b110101 *
b110101 ,
b110101 -
1.
00
b1101000 8
1"
#1076
0'
#1078
1'
#1080
0'
0"
1&
#1082
1'
#1084
0'
#1085
1$
1(
b1101001 8
b101001 )
b101001 +
b101001 /
10
0.
1"
#1086
1'
#1088
0'
0&
#1090
1'
0"
#1092
0'
#1094
1'
#1095
1$
1(
b110110 *
b110110 ,
b110110 -
1.
00
b1101010 8
1"
#1096
0'
1&
#1098
1'
#1100
0'
0"
#1102
1'
#1104
0'
0&
#1105
1$
1(
b1101011 8
0.
1"
#1106
1'
#1108
0'
#1110
1'
0"
#1112
0'
1&
#1114
1'
#1115
1$
1(
b110111 *
b110111 ,
b110111 -
1.
b101010 )
b101010 +
b101010 /
10
b1101100 8
1"
#1116
0'
#1118
1'
#1120
0'
0"
0&
#1122
1'
#1124
0'
#1125
1$
1(
b1101101 8
00
0.
1"
#1126
1'
#1128
0'
1&
#1130
1'
0"
#1132
0'
#1134
1'
#1135
1$
1(
b111000 *
b111000 ,
b111000 -
1.
b101011 )
b101011 +
b101011 /
10
b1101110 8
1"
#1136
0'
0&
#1138
1'
#1140
0'
0"
#1142
1'
#1144
0'
1&
#1145
1$
1(
b1101111 8
0.
1"
#1146
1'
#1148
0'
#1150
1'
0"
#1152
0'
0&
#1154
1'
#1155
1$
1(
b111001 *
b111001 ,
b111001 -
1.
00
b1110000 8
1"
#1156
0'
#1158
1'
#1160
0'
0"
1&
#1162
1'
#1164
0'
#1165
1$
1(
b1110001 8
b101100 )
b101100 +
b101100 /
10
0.
1"
#1166
1'
#1168
0'
0&
#1170
1'
0"
#1172
0'
#1174
1'
#1175
1$
1(
b111010 *
b111010 ,
b111010 -
1.
00
b1110010 8
1"
#1176
0'
1&
#1178
1'
#1180
0'
0"
#1182
1'
#1184
0'
0&
#1185
1$
1(
b1110011 8
0.
1"
#1186
1'
#1188
0'
#1190
1'
0"
#1192
0'
1&
#1194
1'
#1195
1$
1(
b111011 *
b111011 ,
b111011 -
1.
b101101 )
b101101 +
b101101 /
10
b1110100 8
1"
#1196
0'
#1198
1'
#1200
0'
0"
0&
#1202
1'
#1204
0'
#1205
1$
1(
b1110101 8
00
0.
1"
#1206
1'
#1208
0'
1&
#1210
1'
0"
#1212
0'
#1214
1'
#1215
1$
1(
b111100 *
b111100 ,
b111100 -
1.
b101110 )
b101110 +
b101110 /
10
b1110110 8
1"
#1216
0'
0&
#1218
1'
#1220
0'
0"
#1222
1'
#1224
0'
1&
#1225
1$
1(
b1110111 8
0.
1"
#1226
1'
#1228
0'
#1230
1'
0"
#1232
0'
0&
#1234
1'
#1235
1$
1(
b111101 *
b111101 ,
b111101 -
1.
00
b1111000 8
1"
#1236
0'
#1238
1'
#1240
0'
0"
1&
#1242
1'
#1244
0'
#1245
1$
1(
b1111001 8
b101111 )
b101111 +
b101111 /
10
0.
1"
#1246
1'
#1248
0'
0&
#1250
1'
0"
#1252
0'
#1254
1'
#1255
1$
1(
b111110 *
b111110 ,
b111110 -
1.
00
b1111010 8
1"
#1256
0'
1&
#1258
1'
#1260
0'
0"
#1262
1'
#1264
0'
0&
#1265
1$
1(
b1111011 8
0.
1"
#1266
1'
#1268
0'
#1270
1'
0"
#1272
0'
1&
#1274
1'
#1275
1$
1(
b111111 *
b111111 ,
b111111 -
1.
b110000 )
b110000 +
b110000 /
10
b1111100 8
1"
#1276
0'
#1278
1'
#1280
0'
0"
0&
#1282
1'
#1284
0'
#1285
1$
1(
b1111101 8
00
0.
1"
#1286
1'
#1288
0'
1&
#1290
1'
0"
#1292
0'
#1294
1'
#1295
1$
1(
b1000000 *
b1000000 ,
b1000000 -
1.
b110001 )
b110001 +
b110001 /
10
b1111110 8
1"
#1296
0'
0&
#1298
1'
#1300
0'
0"
#1302
1'
#1304
0'
1&
#1305
1$
1(
b1111111 8
0.
1"
#1306
1'
#1308
0'
#1310
1'
0"
#1312
0'
0&
#1314
1'
#1315
1$
1(
b1000001 *
b1000001 ,
b1000001 -
1.
00
b10000000 8
1"
#1316
0'
#1318
1'
#1320
0'
0"
1&
#1322
1'
#1324
0'
#1325
1$
1(
b10000001 8
b110010 )
b110010 +
b110010 /
10
0.
1"
#1326
1'
#1328
0'
0&
#1330
1'
0"
#1332
0'
#1334
1'
#1335
1$
1(
b1000010 *
b1000010 ,
b1000010 -
1.
00
b10000010 8
1"
#1336
0'
1&
#1338
1'
#1340
0'
0"
#1342
1'
#1344
0'
0&
#1345
1$
1(
b10000011 8
0.
1"
#1346
1'
#1348
0'
#1350
1'
0"
#1352
0'
1&
#1354
1'
#1355
1$
1(
b1000011 *
b1000011 ,
b1000011 -
1.
b110011 )
b110011 +
b110011 /
10
b10000100 8
1"
#1356
0'
#1358
1'
#1360
0'
0"
0&
#1362
1'
#1364
0'
#1365
1$
1(
b10000101 8
00
0.
1"
#1366
1'
#1368
0'
1&
#1370
1'
0"
#1372
0'
#1374
1'
#1375
1$
1(
b1000100 *
b1000100 ,
b1000100 -
1.
b110100 )
b110100 +
b110100 /
10
b10000110 8
1"
#1376
0'
0&
#1378
1'
#1380
0'
0"
#1382
1'
#1384
0'
1&
#1385
1$
1(
b10000111 8
0.
1"
#1386
1'
#1388
0'
#1390
1'
0"
#1392
0'
0&
#1394
1'
#1395
1$
1(
b1000101 *
b1000101 ,
b1000101 -
1.
00
b10001000 8
1"
#1396
0'
#1398
1'
#1400
0'
0"
1&
#1402
1'
#1404
0'
#1405
1$
1(
b10001001 8
b110101 )
b110101 +
b110101 /
10
0.
1"
#1406
1'
#1408
0'
0&
#1410
1'
0"
#1412
0'
#1414
1'
#1415
1$
1(
b1000110 *
b1000110 ,
b1000110 -
1.
00
b10001010 8
1"
#1416
0'
1&
#1418
1'
#1420
0'
0"
#1422
1'
#1424
0'
0&
#1425
1$
1(
b10001011 8
0.
1"
#1426
1'
#1428
0'
#1430
1'
0"
#1432
0'
1&
#1434
1'
#1435
1$
1(
b1000111 *
b1000111 ,
b1000111 -
1.
b110110 )
b110110 +
b110110 /
10
b10001100 8
1"
#1436
0'
#1438
1'
#1440
0'
0"
0&
#1442
1'
#1444
0'
#1445
1$
1(
b10001101 8
00
0.
1"
#1446
1'
#1448
0'
1&
#1450
1'
0"
#1452
0'
#1454
1'
#1455
1$
1(
b1001000 *
b1001000 ,
b1001000 -
1.
b110111 )
b110111 +
b110111 /
10
b10001110 8
1"
#1456
0'
0&
#1458
1'
#1460
0'
0"
#1462
1'
#1464
0'
1&
#1465
1$
1(
b10001111 8
0.
1"
#1466
1'
#1468
0'
#1470
1'
0"
#1472
0'
0&
#1474
1'
#1475
1$
1(
b1001001 *
b1001001 ,
b1001001 -
1.
00
b10010000 8
1"
#1476
0'
#1478
1'
#1480
0'
0"
1&
#1482
1'
#1484
0'
#1485
1$
1(
b10010001 8
b111000 )
b111000 +
b111000 /
10
0.
1"
#1486
1'
#1488
0'
0&
#1490
1'
0"
#1492
0'
#1494
1'
#1495
1$
1(
b1001010 *
b1001010 ,
b1001010 -
1.
00
b10010010 8
1"
#1496
0'
1&
#1498
1'
#1500
0'
0"
#1502
1'
#1504
0'
0&
#1505
1$
1(
b10010011 8
0.
1"
#1506
1'
#1508
0'
#1510
1'
0"
#1512
0'
1&
#1514
1'
#1515
1$
1(
b1001011 *
b1001011 ,
b1001011 -
1.
b111001 )
b111001 +
b111001 /
10
b10010100 8
1"
#1516
0'
#1518
1'
#1520
0'
0"
0&
#1522
1'
#1524
0'
#1525
1$
1(
b10010101 8
00
0.
1"
#1526
1'
#1528
0'
1&
#1530
1'
0"
#1532
0'
#1534
1'
#1535
1$
1(
b1001100 *
b1001100 ,
b1001100 -
1.
b111010 )
b111010 +
b111010 /
10
b10010110 8
1"
#1536
0'
0&
#1538
1'
#1540
0'
0"
#1542
1'
#1544
0'
1&
#1545
1$
1(
b10010111 8
0.
1"
#1546
1'
#1548
0'
#1550
1'
0"
#1552
0'
0&
#1554
1'
#1555
1$
1(
b1001101 *
b1001101 ,
b1001101 -
1.
00
b10011000 8
1"
#1556
0'
#1558
1'
#1560
0'
0"
1&
#1562
1'
#1564
0'
#1565
1$
1(
b10011001 8
b111011 )
b111011 +
b111011 /
10
0.
1"
#1566
1'
#1568
0'
0&
#1570
1'
0"
#1572
0'
#1574
1'
#1575
1$
1(
b1001110 *
b1001110 ,
b1001110 -
1.
00
b10011010 8
1"
#1576
0'
1&
#1578
1'
#1580
0'
0"
#1582
1'
#1584
0'
0&
#1585
1$
1(
b10011011 8
0.
1"
#1586
1'
#1588
0'
#1590
1'
0"
#1592
0'
1&
#1594
1'
#1595
1$
1(
b1001111 *
b1001111 ,
b1001111 -
1.
b111100 )
b111100 +
b111100 /
10
b10011100 8
1"
#1596
0'
#1598
1'
#1600
0'
0"
0&
#1602
1'
#1604
0'
#1605
1$
1(
b10011101 8
00
0.
1"
#1606
1'
#1608
0'
1&
#1610
1'
0"
#1612
0'
#1614
1'
#1615
1$
1(
b1010000 *
b1010000 ,
b1010000 -
1.
b111101 )
b111101 +
b111101 /
10
b10011110 8
1"
#1616
0'
0&
#1618
1'
#1620
0'
0"
#1622
1'
#1624
0'
1&
#1625
1$
1(
b10011111 8
0.
1"
#1626
1'
#1628
0'
#1630
1'
0"
#1632
0'
0&
#1634
1'
#1635
1$
1(
b1010001 *
b1010001 ,
b1010001 -
1.
00
b10100000 8
1"
#1636
0'
#1638
1'
#1640
0'
0"
1&
#1642
1'
#1644
0'
#1645
1$
1(
b10100001 8
b111110 )
b111110 +
b111110 /
10
0.
1"
#1646
1'
#1648
0'
0&
#1650
1'
0"
#1652
0'
#1654
1'
#1655
1$
1(
b1010010 *
b1010010 ,
b1010010 -
1.
00
b10100010 8
1"
#1656
0'
1&
#1658
1'
#1660
0'
0"
#1662
1'
#1664
0'
0&
#1665
1$
1(
b10100011 8
0.
1"
#1666
1'
#1668
0'
#1670
1'
0"
#1672
0'
1&
#1674
1'
#1675
1$
1(
b1010011 *
b1010011 ,
b1010011 -
1.
b111111 )
b111111 +
b111111 /
10
b10100100 8
1"
#1676
0'
#1678
1'
#1680
0'
0"
0&
#1682
1'
#1684
0'
#1685
1$
1(
b10100101 8
00
0.
1"
#1686
1'
#1688
0'
1&
#1690
1'
0"
#1692
0'
#1694
1'
#1695
1$
1(
b1010100 *
b1010100 ,
b1010100 -
1.
b1000000 )
b1000000 +
b1000000 /
10
b10100110 8
1"
#1696
0'
0&
#1698
1'
#1700
0'
0"
#1702
1'
#1704
0'
1&
#1705
1$
1(
b10100111 8
0.
1"
#1706
1'
#1708
0'
#1710
1'
0"
#1712
0'
0&
#1714
1'
#1715
1$
1(
b1010101 *
b1010101 ,
b1010101 -
1.
00
b10101000 8
1"
#1716
0'
#1718
1'
#1720
0'
0"
1&
#1722
1'
#1724
0'
#1725
1$
1(
b10101001 8
b1000001 )
b1000001 +
b1000001 /
10
0.
1"
#1726
1'
#1728
0'
0&
#1730
1'
0"
#1732
0'
#1734
1'
#1735
1$
1(
b1010110 *
b1010110 ,
b1010110 -
1.
00
b10101010 8
1"
#1736
0'
1&
#1738
1'
#1740
0'
0"
#1742
1'
#1744
0'
0&
#1745
1$
1(
b10101011 8
0.
1"
#1746
1'
#1748
0'
#1750
1'
0"
#1752
0'
1&
#1754
1'
#1755
1$
1(
b1010111 *
b1010111 ,
b1010111 -
1.
b1000010 )
b1000010 +
b1000010 /
10
b10101100 8
1"
#1756
0'
#1758
1'
#1760
0'
0"
0&
#1762
1'
#1764
0'
#1765
1$
1(
b10101101 8
00
0.
1"
#1766
1'
#1768
0'
1&
#1770
1'
0"
#1772
0'
#1774
1'
#1775
1$
1(
b1011000 *
b1011000 ,
b1011000 -
1.
b1000011 )
b1000011 +
b1000011 /
10
b10101110 8
1"
